\beamer@endinputifotherversion {3.36pt}
\select@language {english}
\beamer@sectionintoc {1}{Contribution}{3}{0}{1}
\beamer@sectionintoc {2}{Introduction on Blockchain}{6}{0}{2}
\beamer@sectionintoc {3}{Blockchain-enabled Server-less FL}{13}{0}{3}
\beamer@sectionintoc {4}{Discussion}{17}{0}{4}
