\relax 
\providecommand\hyper@newdestlabel[2]{}
\providecommand\HyperFirstAtBeginDocument{\AtBeginDocument}
\HyperFirstAtBeginDocument{\ifx\hyper@anchor\@undefined
\global\let\oldcontentsline\contentsline
\gdef\contentsline#1#2#3#4{\oldcontentsline{#1}{#2}{#3}}
\global\let\oldnewlabel\newlabel
\gdef\newlabel#1#2{\newlabelxx{#1}#2}
\gdef\newlabelxx#1#2#3#4#5#6{\oldnewlabel{#1}{{#2}{#3}}}
\AtEndDocument{\ifx\hyper@anchor\@undefined
\let\contentsline\oldcontentsline
\let\newlabel\oldnewlabel
\fi}
\fi}
\global\let\hyper@last\relax 
\gdef\HyperFirstAtBeginDocument#1{#1}
\providecommand\HyField@AuxAddToFields[1]{}
\providecommand\HyField@AuxAddToCoFields[2]{}
\@writefile{toc}{\beamer@endinputifotherversion {3.36pt}}
\@writefile{nav}{\beamer@endinputifotherversion {3.36pt}}
\select@language{english}
\@writefile{toc}{\select@language{english}}
\@writefile{lof}{\select@language{english}}
\@writefile{lot}{\select@language{english}}
\@writefile{nav}{\headcommand {\slideentry {0}{0}{1}{1/1}{}{0}}}
\@writefile{nav}{\headcommand {\beamer@framepages {1}{1}}}
\@writefile{nav}{\headcommand {\slideentry {0}{0}{2}{2/2}{}{0}}}
\@writefile{nav}{\headcommand {\beamer@framepages {2}{2}}}
\@writefile{toc}{\beamer@sectionintoc {1}{Contribution}{3}{0}{1}}
\@writefile{nav}{\headcommand {\sectionentry {1}{Contribution}{3}{Contribution}{0}}}
\@writefile{nav}{\headcommand {\beamer@sectionpages {1}{2}}}
\@writefile{nav}{\headcommand {\beamer@subsectionpages {1}{2}}}
\@writefile{nav}{\headcommand {\slideentry {1}{0}{1}{3/3}{}{0}}}
\@writefile{nav}{\headcommand {\beamer@framepages {3}{3}}}
\@writefile{nav}{\headcommand {\beamer@subsectionentry {0}{1}{1}{4}{}}\headcommand {\beamer@subsectionpages {3}{3}}}
\@writefile{nav}{\headcommand {\slideentry {1}{1}{1}{4/5}{}{0}}}
\@writefile{nav}{\headcommand {\beamer@framepages {4}{5}}}
\@writefile{toc}{\beamer@sectionintoc {2}{Introduction on Blockchain}{6}{0}{2}}
\@writefile{nav}{\headcommand {\sectionentry {2}{Intro. Blockchain}{6}{Introduction on Blockchain}{0}}}
\@writefile{nav}{\headcommand {\beamer@sectionpages {3}{5}}}
\@writefile{nav}{\headcommand {\beamer@subsectionpages {4}{5}}}
\@writefile{nav}{\headcommand {\slideentry {2}{0}{1}{6/6}{}{0}}}
\@writefile{nav}{\headcommand {\beamer@framepages {6}{6}}}
\@writefile{nav}{\headcommand {\beamer@subsectionentry {0}{2}{1}{7}{}}\headcommand {\beamer@subsectionpages {6}{6}}}
\@writefile{nav}{\headcommand {\slideentry {2}{1}{1}{7/7}{}{0}}}
\@writefile{nav}{\headcommand {\beamer@framepages {7}{7}}}
\@writefile{nav}{\headcommand {\beamer@subsectionentry {0}{2}{2}{8}{}}\headcommand {\beamer@subsectionpages {7}{7}}}
\@writefile{nav}{\headcommand {\slideentry {2}{2}{1}{8/9}{}{0}}}
\@writefile{nav}{\headcommand {\beamer@framepages {8}{9}}}
\citation{bc_autonomous_driving}
\citation{bc_automotive}
\citation{bc_iot}
\citation{bc_iot2}
\citation{beran}
\citation{bc_broker}
\citation{bc_business}
\citation{bc_spectrum}
\citation{bc_spectrum2}
\@writefile{nav}{\headcommand {\beamer@subsectionentry {0}{2}{3}{10}{}}\headcommand {\beamer@subsectionpages {8}{9}}}
\citation{bc_autonomous_driving}
\citation{bc_automotive}
\citation{bc_iot}
\citation{bc_iot2}
\citation{beran}
\citation{bc_broker}
\citation{bc_business}
\citation{bc_spectrum}
\citation{bc_spectrum2}
\@writefile{nav}{\headcommand {\slideentry {2}{3}{1}{10/11}{}{0}}}
\@writefile{nav}{\headcommand {\beamer@framepages {10}{11}}}
\@writefile{nav}{\headcommand {\beamer@subsectionentry {0}{2}{4}{12}{}}\headcommand {\beamer@subsectionpages {10}{11}}}
\@writefile{nav}{\headcommand {\slideentry {2}{4}{1}{12/12}{}{0}}}
\@writefile{nav}{\headcommand {\beamer@framepages {12}{12}}}
\@writefile{toc}{\beamer@sectionintoc {3}{Blockchain-enabled Server-less FL}{13}{0}{3}}
\@writefile{nav}{\headcommand {\sectionentry {3}{Blockchain \& Federated Learning}{13}{Blockchain-enabled Server-less FL}{0}}}
\@writefile{nav}{\headcommand {\beamer@sectionpages {6}{12}}}
\@writefile{nav}{\headcommand {\beamer@subsectionpages {12}{12}}}
\@writefile{nav}{\headcommand {\slideentry {3}{0}{1}{13/13}{}{0}}}
\@writefile{nav}{\headcommand {\beamer@framepages {13}{13}}}
\@writefile{nav}{\headcommand {\beamer@subsectionentry {0}{3}{1}{14}{}}\headcommand {\beamer@subsectionpages {13}{13}}}
\@writefile{nav}{\headcommand {\slideentry {3}{1}{1}{14/14}{}{0}}}
\@writefile{nav}{\headcommand {\beamer@framepages {14}{14}}}
\@writefile{nav}{\headcommand {\beamer@subsectionentry {0}{3}{2}{15}{}}\headcommand {\beamer@subsectionpages {14}{14}}}
\@writefile{nav}{\headcommand {\slideentry {3}{2}{1}{15/15}{}{0}}}
\@writefile{nav}{\headcommand {\beamer@framepages {15}{15}}}
\@writefile{nav}{\headcommand {\beamer@subsectionentry {0}{3}{3}{16}{}}\headcommand {\beamer@subsectionpages {15}{15}}}
\@writefile{nav}{\headcommand {\slideentry {3}{3}{1}{16/16}{}{0}}}
\@writefile{nav}{\headcommand {\beamer@framepages {16}{16}}}
\@writefile{toc}{\beamer@sectionintoc {4}{Discussion}{17}{0}{4}}
\@writefile{nav}{\headcommand {\sectionentry {4}{Discussion}{17}{Discussion}{0}}}
\@writefile{nav}{\headcommand {\beamer@sectionpages {13}{16}}}
\@writefile{nav}{\headcommand {\beamer@subsectionpages {16}{16}}}
\@writefile{nav}{\headcommand {\slideentry {4}{0}{1}{17/17}{}{0}}}
\@writefile{nav}{\headcommand {\beamer@framepages {17}{17}}}
\@writefile{nav}{\headcommand {\beamer@subsectionentry {0}{4}{1}{18}{}}\headcommand {\beamer@subsectionpages {17}{17}}}
\@writefile{nav}{\headcommand {\slideentry {4}{1}{1}{18/18}{}{0}}}
\@writefile{nav}{\headcommand {\beamer@framepages {18}{18}}}
\@writefile{nav}{\headcommand {\slideentry {5}{0}{1}{19/19}{}{0}}}
\@writefile{nav}{\headcommand {\beamer@framepages {19}{19}}}
\bibcite{bc_autonomous_driving}{\hyperlink {beamerbibbc_autonomous_driving}{1}}
\bibcite{bc_automotive}{\hyperlink {beamerbibbc_automotive}{2}}
\bibcite{bc_iot}{\hyperlink {beamerbibbc_iot}{3}}
\bibcite{bc_iot2}{\hyperlink {beamerbibbc_iot2}{4}}
\@writefile{nav}{\headcommand {\slideentry {5}{0}{2}{20/20}{}{0}}}
\@writefile{nav}{\headcommand {\beamer@framepages {20}{20}}}
\bibcite{beran}{\hyperlink {beamerbibberan}{5}}
\bibcite{bc_broker}{\hyperlink {beamerbibbc_broker}{6}}
\bibcite{bc_business}{\hyperlink {beamerbibbc_business}{7}}
\bibcite{bc_spectrum}{\hyperlink {beamerbibbc_spectrum}{8}}
\bibcite{bc_spectrum2}{\hyperlink {beamerbibbc_spectrum2}{9}}
\@writefile{nav}{\headcommand {\slideentry {5}{0}{3}{21/21}{}{0}}}
\@writefile{nav}{\headcommand {\beamer@framepages {21}{21}}}
\@writefile{nav}{\headcommand {\beamer@subsectionentry {0}{5}{1}{22}{}}\headcommand {\beamer@subsectionpages {19}{21}}}
\@writefile{nav}{\headcommand {\slideentry {5}{1}{1}{22/22}{}{0}}}
\@writefile{nav}{\headcommand {\beamer@framepages {22}{22}}}
\@writefile{nav}{\headcommand {\beamer@subsectionentry {0}{5}{2}{23}{}}\headcommand {\beamer@subsectionpages {22}{22}}}
\@writefile{nav}{\headcommand {\slideentry {5}{2}{1}{23/23}{}{0}}}
\@writefile{nav}{\headcommand {\beamer@framepages {23}{23}}}
\@writefile{nav}{\headcommand {\beamer@partpages {1}{23}}}
\@writefile{nav}{\headcommand {\beamer@subsectionpages {23}{23}}}
\@writefile{nav}{\headcommand {\beamer@sectionpages {19}{23}}}
\@writefile{nav}{\headcommand {\beamer@documentpages {23}}}
\@writefile{nav}{\headcommand {\def \inserttotalframenumber {18}}}
