\beamer@endinputifotherversion {3.36pt}
\select@language {english}
\beamer@sectionintoc {1}{Motivation}{3}{0}{1}
\beamer@sectionintoc {2}{Background}{5}{0}{2}
\beamer@sectionintoc {3}{Proof-of-Concept Implementation}{8}{0}{3}
\beamer@sectionintoc {4}{Open Issues \& Discussion Points}{13}{0}{4}
