\relax 
\providecommand\hyper@newdestlabel[2]{}
\providecommand\HyperFirstAtBeginDocument{\AtBeginDocument}
\HyperFirstAtBeginDocument{\ifx\hyper@anchor\@undefined
\global\let\oldcontentsline\contentsline
\gdef\contentsline#1#2#3#4{\oldcontentsline{#1}{#2}{#3}}
\global\let\oldnewlabel\newlabel
\gdef\newlabel#1#2{\newlabelxx{#1}#2}
\gdef\newlabelxx#1#2#3#4#5#6{\oldnewlabel{#1}{{#2}{#3}}}
\AtEndDocument{\ifx\hyper@anchor\@undefined
\let\contentsline\oldcontentsline
\let\newlabel\oldnewlabel
\fi}
\fi}
\global\let\hyper@last\relax 
\gdef\HyperFirstAtBeginDocument#1{#1}
\providecommand\HyField@AuxAddToFields[1]{}
\providecommand\HyField@AuxAddToCoFields[2]{}
\citation{p1}
\@writefile{toc}{\beamer@endinputifotherversion {3.36pt}}
\@writefile{nav}{\beamer@endinputifotherversion {3.36pt}}
\select@language{english}
\@writefile{toc}{\select@language{english}}
\@writefile{lof}{\select@language{english}}
\@writefile{lot}{\select@language{english}}
\@writefile{nav}{\headcommand {\slideentry {0}{0}{1}{1/1}{}{0}}}
\@writefile{nav}{\headcommand {\beamer@framepages {1}{1}}}
\@writefile{nav}{\headcommand {\slideentry {0}{0}{2}{2/2}{}{0}}}
\@writefile{nav}{\headcommand {\beamer@framepages {2}{2}}}
\@writefile{toc}{\beamer@sectionintoc {1}{Motivation}{3}{0}{1}}
\@writefile{nav}{\headcommand {\sectionentry {1}{Motivation}{3}{Motivation}{0}}}
\@writefile{nav}{\headcommand {\beamer@sectionpages {1}{2}}}
\@writefile{nav}{\headcommand {\beamer@subsectionpages {1}{2}}}
\@writefile{nav}{\headcommand {\slideentry {1}{0}{1}{3/3}{}{0}}}
\@writefile{nav}{\headcommand {\beamer@framepages {3}{3}}}
\@writefile{nav}{\headcommand {\beamer@subsectionentry {0}{1}{1}{4}{}}\headcommand {\beamer@subsectionpages {3}{3}}}
\@writefile{nav}{\headcommand {\slideentry {1}{1}{1}{4/4}{}{0}}}
\@writefile{nav}{\headcommand {\beamer@framepages {4}{4}}}
\@writefile{toc}{\beamer@sectionintoc {2}{Background}{5}{0}{2}}
\@writefile{nav}{\headcommand {\sectionentry {2}{Background}{5}{Background}{0}}}
\@writefile{nav}{\headcommand {\beamer@sectionpages {3}{4}}}
\@writefile{nav}{\headcommand {\beamer@subsectionpages {4}{4}}}
\@writefile{nav}{\headcommand {\slideentry {2}{0}{1}{5/5}{}{0}}}
\@writefile{nav}{\headcommand {\beamer@framepages {5}{5}}}
\citation{p2}
\@writefile{nav}{\headcommand {\beamer@subsectionentry {0}{2}{1}{6}{}}\headcommand {\beamer@subsectionpages {5}{5}}}
\@writefile{nav}{\headcommand {\slideentry {2}{1}{1}{6/6}{}{0}}}
\@writefile{nav}{\headcommand {\beamer@framepages {6}{6}}}
\@writefile{nav}{\headcommand {\beamer@subsectionentry {0}{2}{2}{7}{}}\headcommand {\beamer@subsectionpages {6}{6}}}
\@writefile{nav}{\headcommand {\slideentry {2}{2}{1}{7/7}{}{0}}}
\@writefile{nav}{\headcommand {\beamer@framepages {7}{7}}}
\@writefile{toc}{\beamer@sectionintoc {3}{Proof-of-Concept Implementation}{8}{0}{3}}
\@writefile{nav}{\headcommand {\sectionentry {3}{PoC}{8}{Proof-of-Concept Implementation}{0}}}
\@writefile{nav}{\headcommand {\beamer@sectionpages {5}{7}}}
\@writefile{nav}{\headcommand {\beamer@subsectionpages {7}{7}}}
\@writefile{nav}{\headcommand {\slideentry {3}{0}{1}{8/8}{}{0}}}
\@writefile{nav}{\headcommand {\beamer@framepages {8}{8}}}
\@writefile{nav}{\headcommand {\beamer@subsectionentry {0}{3}{1}{9}{}}\headcommand {\beamer@subsectionpages {8}{8}}}
\@writefile{nav}{\headcommand {\slideentry {3}{1}{1}{9/9}{}{0}}}
\@writefile{nav}{\headcommand {\beamer@framepages {9}{9}}}
\@writefile{nav}{\headcommand {\slideentry {3}{1}{2}{10/10}{}{0}}}
\@writefile{nav}{\headcommand {\beamer@framepages {10}{10}}}
\@writefile{nav}{\headcommand {\slideentry {3}{1}{3}{11/11}{}{0}}}
\@writefile{nav}{\headcommand {\beamer@framepages {11}{11}}}
\@writefile{nav}{\headcommand {\slideentry {3}{1}{4}{12/12}{}{0}}}
\@writefile{nav}{\headcommand {\beamer@framepages {12}{12}}}
\@writefile{toc}{\beamer@sectionintoc {4}{Open Issues \& Discussion Points}{13}{0}{4}}
\@writefile{nav}{\headcommand {\sectionentry {4}{Discussion}{13}{Open Issues \& Discussion Points}{0}}}
\@writefile{nav}{\headcommand {\beamer@sectionpages {8}{12}}}
\@writefile{nav}{\headcommand {\beamer@subsectionpages {9}{12}}}
\@writefile{nav}{\headcommand {\slideentry {4}{0}{1}{13/13}{}{0}}}
\@writefile{nav}{\headcommand {\beamer@framepages {13}{13}}}
\@writefile{nav}{\headcommand {\beamer@subsectionentry {0}{4}{1}{14}{}}\headcommand {\beamer@subsectionpages {13}{13}}}
\@writefile{nav}{\headcommand {\slideentry {4}{1}{1}{14/14}{}{0}}}
\@writefile{nav}{\headcommand {\beamer@framepages {14}{14}}}
\@writefile{nav}{\headcommand {\slideentry {5}{0}{1}{15/15}{}{0}}}
\@writefile{nav}{\headcommand {\beamer@framepages {15}{15}}}
\bibcite{p1}{\hyperlink {beamerbibp1}{FW20}}
\bibcite{p2}{\hyperlink {beamerbibp2}{ML5G-I-238}}
\bibcite{p3}{\hyperlink {beamerbibp3}{FG-AN ToR}}
\@writefile{nav}{\headcommand {\slideentry {5}{0}{2}{16/16}{}{0}}}
\@writefile{nav}{\headcommand {\beamer@framepages {16}{16}}}
\@writefile{nav}{\headcommand {\beamer@partpages {1}{16}}}
\@writefile{nav}{\headcommand {\beamer@subsectionpages {15}{16}}}
\@writefile{nav}{\headcommand {\beamer@sectionpages {15}{16}}}
\@writefile{nav}{\headcommand {\beamer@documentpages {16}}}
\@writefile{nav}{\headcommand {\def \inserttotalframenumber {16}}}
