\beamer@endinputifotherversion {3.36pt}
\headcommand {\slideentry {0}{0}{1}{1/1}{}{0}}
\headcommand {\beamer@framepages {1}{1}}
\headcommand {\slideentry {0}{0}{2}{2/2}{}{0}}
\headcommand {\beamer@framepages {2}{2}}
\headcommand {\sectionentry {1}{Motivation}{3}{Motivation}{0}}
\headcommand {\beamer@sectionpages {1}{2}}
\headcommand {\beamer@subsectionpages {1}{2}}
\headcommand {\slideentry {1}{0}{1}{3/3}{}{0}}
\headcommand {\beamer@framepages {3}{3}}
\headcommand {\beamer@subsectionentry {0}{1}{1}{4}{}}\headcommand {\beamer@subsectionpages {3}{3}}
\headcommand {\slideentry {1}{1}{1}{4/4}{}{0}}
\headcommand {\beamer@framepages {4}{4}}
\headcommand {\sectionentry {2}{Background}{5}{Background}{0}}
\headcommand {\beamer@sectionpages {3}{4}}
\headcommand {\beamer@subsectionpages {4}{4}}
\headcommand {\slideentry {2}{0}{1}{5/5}{}{0}}
\headcommand {\beamer@framepages {5}{5}}
\headcommand {\beamer@subsectionentry {0}{2}{1}{6}{}}\headcommand {\beamer@subsectionpages {5}{5}}
\headcommand {\slideentry {2}{1}{1}{6/6}{}{0}}
\headcommand {\beamer@framepages {6}{6}}
\headcommand {\beamer@subsectionentry {0}{2}{2}{7}{}}\headcommand {\beamer@subsectionpages {6}{6}}
\headcommand {\slideentry {2}{2}{1}{7/7}{}{0}}
\headcommand {\beamer@framepages {7}{7}}
\headcommand {\sectionentry {3}{PoC}{8}{Proof-of-Concept Implementation}{0}}
\headcommand {\beamer@sectionpages {5}{7}}
\headcommand {\beamer@subsectionpages {7}{7}}
\headcommand {\slideentry {3}{0}{1}{8/8}{}{0}}
\headcommand {\beamer@framepages {8}{8}}
\headcommand {\beamer@subsectionentry {0}{3}{1}{9}{}}\headcommand {\beamer@subsectionpages {8}{8}}
\headcommand {\slideentry {3}{1}{1}{9/9}{}{0}}
\headcommand {\beamer@framepages {9}{9}}
\headcommand {\slideentry {3}{1}{2}{10/10}{}{0}}
\headcommand {\beamer@framepages {10}{10}}
\headcommand {\slideentry {3}{1}{3}{11/11}{}{0}}
\headcommand {\beamer@framepages {11}{11}}
\headcommand {\slideentry {3}{1}{4}{12/12}{}{0}}
\headcommand {\beamer@framepages {12}{12}}
\headcommand {\sectionentry {4}{Discussion}{13}{Open Issues \& Discussion Points}{0}}
\headcommand {\beamer@sectionpages {8}{12}}
\headcommand {\beamer@subsectionpages {9}{12}}
\headcommand {\slideentry {4}{0}{1}{13/13}{}{0}}
\headcommand {\beamer@framepages {13}{13}}
\headcommand {\beamer@subsectionentry {0}{4}{1}{14}{}}\headcommand {\beamer@subsectionpages {13}{13}}
\headcommand {\slideentry {4}{1}{1}{14/14}{}{0}}
\headcommand {\beamer@framepages {14}{14}}
\headcommand {\slideentry {5}{0}{1}{15/15}{}{0}}
\headcommand {\beamer@framepages {15}{15}}
\headcommand {\slideentry {5}{0}{2}{16/16}{}{0}}
\headcommand {\beamer@framepages {16}{16}}
\headcommand {\beamer@partpages {1}{16}}
\headcommand {\beamer@subsectionpages {15}{16}}
\headcommand {\beamer@sectionpages {15}{16}}
\headcommand {\beamer@documentpages {16}}
\headcommand {\def \inserttotalframenumber {16}}
