\beamer@endinputifotherversion {3.36pt}
\select@language {english}
\beamer@sectionintoc {1}{Introduction}{3}{0}{1}
\beamer@sectionintoc {2}{Architectural Framework}{7}{0}{2}
\beamer@sectionintoc {3}{Discussion}{14}{0}{3}
